{
    "app" : {

        "base_url" : "https://api.neolifeafrica.info"
    },

    "payments" : {

        "sources" : ["ACCESS", "ACCESSPOS", "CITIBANK", "GTBANK", "CITIPOS","CITIDEPOSIT","FIRSTBANK","FBNUSSD","GTBPOS","GTBUSSD","STANBIC","STANBICPOS","UBA","UBAPOS","ZENITH","ZENITHPOS","ZENITHU"],
        "approval_emails" : ["cnapproval@ng.neolife.com"],
        "login_url" : "https://mdw.neolifeafrica.info/warehouse/auth/login",
        "payment_url" : "https://mdw.neolifeafrica.info/banks/api/payment",
        "frontend_url" : "https://office.neolifeafrica.info"
    },

    "sms" : {

        "report_emails" : ["abioduns@ng.neolife.com", "ogochukwuo@ng.neolife.com"]
    },

    "database" : {

        "banks_api" : {

            "user" : "ITOlaiyaS",
            "password" : "3478%ghy",
            "server" : "mdw.neolifeafrica.info",
            "database" : "banksapi"
        },

        "exigo" : {

           "user" : "ITOlaiyaS",
            "password" : "3478%ghy",
            "server" : "405-SQL.vm.epicservers.com",
            "database" : "gnldreporting"
        },

        "exigo_sandbox" : {

            "user" : "ITOlaiyaS",
             "password" : "wer250t#",
             "server" : "405-SQLDEV1.vm.epicservers.com",
             "database" : "gnldreportingsandbox6"
         }
    }
}